<?xml version="1.0" encoding="utf-8"?>
<svg fill="#000000" width="800px" height="800px" viewBox="0 0 56 56" xmlns="http://www.w3.org/2000/svg">
  <rect x="18.851" y="10.408" width="17.401" height="33.199" style="fill: rgb(255, 193, 7);"/>
  <path d="M 28 55.798 C 43.181 55.798 55.799 43.208 55.799 28 C 55.799 12.819 43.153 0.201 27.973 0.201 C 12.765 0.201 0.202 12.819 0.202 28 C 0.202 43.208 12.792 55.798 28 55.798 Z M 27.755 18.298 C 25.765 18.298 24.212 16.717 24.212 14.755 C 24.212 12.766 25.765 11.185 27.755 11.185 C 29.744 11.185 31.298 12.766 31.298 14.755 C 31.298 16.717 29.744 18.298 27.755 18.298 Z M 23.203 42.99 C 22.113 42.99 21.241 42.199 21.241 41.082 C 21.241 40.019 22.113 39.175 23.203 39.175 L 26.609 39.175 L 26.609 26.665 L 23.666 26.665 C 22.576 26.665 21.704 25.874 21.704 24.757 C 21.704 23.694 22.576 22.85 23.666 22.85 L 28.817 22.85 C 30.18 22.85 30.943 23.83 30.943 25.302 L 30.943 39.175 L 34.322 39.175 C 35.44 39.175 36.312 40.019 36.312 41.082 C 36.312 42.199 35.44 42.99 34.322 42.99 L 23.203 42.99 Z" style=""/>
</svg>